{"count": 1302, "next": "https://pokeapi.co/api/v2/pokemon/?offset=1300&limit=2", "previous": "https://pokeapi.co/api/v2/pokemon/?offset=1100&limit=100", "results": [{"name": "darumaka-galar", "url": "https://pokeapi.co/api/v2/pokemon/10176/"}, {"name": "darmanitan-galar-standard", "url": "https://pokeapi.co/api/v2/pokemon/10177/"}, {"name": "darmanitan-galar-zen", "url": "https://pokeapi.co/api/v2/pokemon/10178/"}, {"name": "yamask-galar", "url": "https://pokeapi.co/api/v2/pokemon/10179/"}, {"name": "stunfisk-galar", "url": "https://pokeapi.co/api/v2/pokemon/10180/"}, {"name": "zygarde-10", "url": "https://pokeapi.co/api/v2/pokemon/10181/"}, {"name": "cramorant-gulping", "url": "https://pokeapi.co/api/v2/pokemon/10182/"}, {"name": "cramorant-gorging", "url": "https://pokeapi.co/api/v2/pokemon/10183/"}, {"name": "toxtricity-low-key", "url": "https://pokeapi.co/api/v2/pokemon/10184/"}, {"name": "eiscue-noice", "url": "https://pokeapi.co/api/v2/pokemon/10185/"}, {"name": "indeedee-female", "url": "https://pokeapi.co/api/v2/pokemon/10186/"}, {"name": "morpeko-hangry", "url": "https://pokeapi.co/api/v2/pokemon/10187/"}, {"name": "zacian-crowned", "url": "https://pokeapi.co/api/v2/pokemon/10188/"}, {"name": "zamazenta-crowned", "url": "https://pokeapi.co/api/v2/pokemon/10189/"}, {"name": "eternatus-eternamax", "url": "https://pokeapi.co/api/v2/pokemon/10190/"}, {"name": "urshifu-rapid-strike", "url": "https://pokeapi.co/api/v2/pokemon/10191/"}, {"name": "zarude-dada", "url": "https://pokeapi.co/api/v2/pokemon/10192/"}, {"name": "calyrex-ice", "url": "https://pokeapi.co/api/v2/pokemon/10193/"}, {"name": "calyrex-shadow", "url": "https://pokeapi.co/api/v2/pokemon/10194/"}, {"name": "venusaur-gmax", "url": "https://pokeapi.co/api/v2/pokemon/10195/"}, {"name": "charizard-gmax", "url": "https://pokeapi.co/api/v2/pokemon/10196/"}, {"name": "blastoise-gmax", "url": "https://pokeapi.co/api/v2/pokemon/10197/"}, {"name": "butterfree-gmax", "url": "https://pokeapi.co/api/v2/pokemon/10198/"}, {"name": "pikachu-gmax", "url": "https://pokeapi.co/api/v2/pokemon/10199/"}, {"name": "meowth-gmax", "url": "https://pokeapi.co/api/v2/pokemon/10200/"}, {"name": "machamp-gmax", "url": "https://pokeapi.co/api/v2/pokemon/10201/"}, {"name": "gengar-gmax", "url": "https://pokeapi.co/api/v2/pokemon/10202/"}, {"name": "kingler-gmax", "url": "https://pokeapi.co/api/v2/pokemon/10203/"}, {"name": "lapras-gmax", "url": "https://pokeapi.co/api/v2/pokemon/10204/"}, {"name": "eevee-gmax", "url": "https://pokeapi.co/api/v2/pokemon/10205/"}, {"name": "snorlax-gmax", "url": "https://pokeapi.co/api/v2/pokemon/10206/"}, {"name": "garbodor-gmax", "url": "https://pokeapi.co/api/v2/pokemon/10207/"}, {"name": "melmetal-gmax", "url": "https://pokeapi.co/api/v2/pokemon/10208/"}, {"name": "rillaboom-gmax", "url": "https://pokeapi.co/api/v2/pokemon/10209/"}, {"name": "cinderace-gmax", "url": "https://pokeapi.co/api/v2/pokemon/10210/"}, {"name": "inteleon-gmax", "url": "https://pokeapi.co/api/v2/pokemon/10211/"}, {"name": "corviknight-gmax", "url": "https://pokeapi.co/api/v2/pokemon/10212/"}, {"name": "orbeetle-gmax", "url": "https://pokeapi.co/api/v2/pokemon/10213/"}, {"name": "drednaw-gmax", "url": "https://pokeapi.co/api/v2/pokemon/10214/"}, {"name": "coalossal-gmax", "url": "https://pokeapi.co/api/v2/pokemon/10215/"}, {"name": "flapple-gmax", "url": "https://pokeapi.co/api/v2/pokemon/10216/"}, {"name": "appletun-gmax", "url": "https://pokeapi.co/api/v2/pokemon/10217/"}, {"name": "sandaconda-gmax", "url": "https://pokeapi.co/api/v2/pokemon/10218/"}, {"name": "toxtricity-amped-gmax", "url": "https://pokeapi.co/api/v2/pokemon/10219/"}, {"name": "centiskorch-gmax", "url": "https://pokeapi.co/api/v2/pokemon/10220/"}, {"name": "hatterene-gmax", "url": "https://pokeapi.co/api/v2/pokemon/10221/"}, {"name": "grimmsnarl-gmax", "url": "https://pokeapi.co/api/v2/pokemon/10222/"}, {"name": "alcremie-gmax", "url": "https://pokeapi.co/api/v2/pokemon/10223/"}, {"name": "copperajah-gmax", "url": "https://pokeapi.co/api/v2/pokemon/10224/"}, {"name": "duraludon-gmax", "url": "https://pokeapi.co/api/v2/pokemon/10225/"}, {"name": "urshifu-single-strike-gmax", "url": "https://pokeapi.co/api/v2/pokemon/10226/"}, {"name": "urshifu-rapid-strike-gmax", "url": "https://pokeapi.co/api/v2/pokemon/10227/"}, {"name": "toxtricity-low-key-gmax", "url": "https://pokeapi.co/api/v2/pokemon/10228/"}, {"name": "growlithe-hisui", "url": "https://pokeapi.co/api/v2/pokemon/10229/"}, {"name": "arcanine-hisui", "url": "https://pokeapi.co/api/v2/pokemon/10230/"}, {"name": "voltorb-hisui", "url": "https://pokeapi.co/api/v2/pokemon/10231/"}, {"name": "electrode-hisui", "url": "https://pokeapi.co/api/v2/pokemon/10232/"}, {"name": "typhlosion-hisui", "url": "https://pokeapi.co/api/v2/pokemon/10233/"}, {"name": "qwilfish-hisui", "url": "https://pokeapi.co/api/v2/pokemon/10234/"}, {"name": "sneasel-hisui", "url": "https://pokeapi.co/api/v2/pokemon/10235/"}, {"name": "samurott-hisui", "url": "https://pokeapi.co/api/v2/pokemon/10236/"}, {"name": "lilligant-hisui", "url": "https://pokeapi.co/api/v2/pokemon/10237/"}, {"name": "zorua-hisui", "url": "https://pokeapi.co/api/v2/pokemon/10238/"}, {"name": "zoroark-hisui", "url": "https://pokeapi.co/api/v2/pokemon/10239/"}, {"name": "braviary-hisui", "url": "https://pokeapi.co/api/v2/pokemon/10240/"}, {"name": "sliggoo-hisui", "url": "https://pokeapi.co/api/v2/pokemon/10241/"}, {"name": "goodra-hisui", "url": "https://pokeapi.co/api/v2/pokemon/10242/"}, {"name": "avalugg-hisui", "url": "https://pokeapi.co/api/v2/pokemon/10243/"}, {"name": "decidueye-hisui", "url": "https://pokeapi.co/api/v2/pokemon/10244/"}, {"name": "dialga-origin", "url": "https://pokeapi.co/api/v2/pokemon/10245/"}, {"name": "palkia-origin", "url": "https://pokeapi.co/api/v2/pokemon/10246/"}, {"name": "basculin-white-striped", "url": "https://pokeapi.co/api/v2/pokemon/10247/"}, {"name": "basculegion-female", "url": "https://pokeapi.co/api/v2/pokemon/10248/"}, {"name": "enamorus-therian", "url": "https://pokeapi.co/api/v2/pokemon/10249/"}, {"name": "tauros-paldea-combat-breed", "url": "https://pokeapi.co/api/v2/pokemon/10250/"}, {"name": "tauros-paldea-blaze-breed", "url": "https://pokeapi.co/api/v2/pokemon/10251/"}, {"name": "tauros-paldea-aqua-breed", "url": "https://pokeapi.co/api/v2/pokemon/10252/"}, {"name": "wooper-paldea", "url": "https://pokeapi.co/api/v2/pokemon/10253/"}, {"name": "oinkologne-female", "url": "https://pokeapi.co/api/v2/pokemon/10254/"}, {"name": "dudunsparce-three-segment", "url": "https://pokeapi.co/api/v2/pokemon/10255/"}, {"name": "palafin-hero", "url": "https://pokeapi.co/api/v2/pokemon/10256/"}, {"name": "maushold-family-of-three", "url": "https://pokeapi.co/api/v2/pokemon/10257/"}, {"name": "tatsugiri-droopy", "url": "https://pokeapi.co/api/v2/pokemon/10258/"}, {"name": "tatsugiri-stretchy", "url": "https://pokeapi.co/api/v2/pokemon/10259/"}, {"name": "squawkabilly-blue-plumage", "url": "https://pokeapi.co/api/v2/pokemon/10260/"}, {"name": "squawkabilly-yellow-plumage", "url": "https://pokeapi.co/api/v2/pokemon/10261/"}, {"name": "squawkabilly-white-plumage", "url": "https://pokeapi.co/api/v2/pokemon/10262/"}, {"name": "gimmighoul-roaming", "url": "https://pokeapi.co/api/v2/pokemon/10263/"}, {"name": "koraidon-limited-build", "url": "https://pokeapi.co/api/v2/pokemon/10264/"}, {"name": "koraidon-sprinting-build", "url": "https://pokeapi.co/api/v2/pokemon/10265/"}, {"name": "koraidon-swimming-build", "url": "https://pokeapi.co/api/v2/pokemon/10266/"}, {"name": "koraidon-gliding-build", "url": "https://pokeapi.co/api/v2/pokemon/10267/"}, {"name": "miraidon-low-power-mode", "url": "https://pokeapi.co/api/v2/pokemon/10268/"}, {"name": "miraidon-drive-mode", "url": "https://pokeapi.co/api/v2/pokemon/10269/"}, {"name": "miraidon-aquatic-mode", "url": "https://pokeapi.co/api/v2/pokemon/10270/"}, {"name": "miraidon-glide-mode", "url": "https://pokeapi.co/api/v2/pokemon/10271/"}, {"name": "ursaluna-bloodmoon", "url": "https://pokeapi.co/api/v2/pokemon/10272/"}, {"name": "ogerpon-wellspring-mask", "url": "https://pokeapi.co/api/v2/pokemon/10273/"}, {"name": "ogerpon-hearthflame-mask", "url": "https://pokeapi.co/api/v2/pokemon/10274/"}, {"name": "ogerpon-cornerstone-mask", "url": "https://pokeapi.co/api/v2/pokemon/10275/"}], "ingestion_date": "2025-03-13 03:40:19"}